{
  "variables": {
    "project_id": "",
    "account_file": "",
    "ssh_username": "",
    "ssh_private_key_file": "",
    "service_account_email": "",
    "branch": "",
    "commit": "",
    "environment": ""
  },

  "builders": [
    {
      "image_name": "kerberos-{{user `commit`}}",
      "image_family": "kerberos",
      "image_description": "Image with Kerberos admin server and KDC installed.",
      "name": "kerberos",
      "type": "googlecompute",
      "account_file": "{{user `account_file`}}",
      "project_id": "{{user `project_id`}}",
      "source_image_family": "centos-7",
      "ssh_username": "{{user `ssh_username`}}",
      "ssh_private_key_file": "{{user `ssh_private_key_file`}}",
      "zone": "us-central1-a",
      "preemptible": true,
      "image_labels": {
        "infrastructure": "",
        "environment": "{{user `environment`}}",
        "branch": "{{user `branch`}}",
        "commit": "{{user `commit`}}"
      }
    }
  ],
  
  "provisioners": [
    { "type": "file", "source": "files/kadmin.service", "destination": "/tmp/kadmin.service" },
    { "type": "file", "source": "files/krb5kdc.service", "destination": "/tmp/krb5kdc.service" },
    { "type": "file", "source": "files/reload-kerberos.path", "destination": "/tmp/reload-kerberos.path" },
    { "type": "file", "source": "files/reload-kerberos.service", "destination": "/tmp/reload-kerberos.service" },
    {
      "type": "shell",
      "scripts": [
        "scripts/install-krb5-admin-server.sh"
      ]
    }
  ]
}
